{
  "project_info": {
    "project_number": "707922007794",
    "project_id": "fluttermtnbackend-e6505",
    "storage_bucket": "fluttermtnbackend-e6505.appspot.com"
  },
  "client": [
    {
      "client_info": {
        "mobilesdk_app_id": "1:707922007794:android:b1f915fbadf59224f3226b",
        "android_client_info": {
          "package_name": "com.example.fluttermtnbackend"
        }
      },
      "oauth_client": [
        {
          "client_id": "707922007794-fncvtlriv5u526b9mmd916q6ou2skaab.apps.googleusercontent.com",
          "client_type": 3
        }
      ],
      "api_key": [
        {
          "current_key": "AIzaSyDRmbRvYCa1DEj6OmBB0mFEAnFUnNaEqcU"
        }
      ],
      "services": {
        "appinvite_service": {
          "other_platform_oauth_client": [
            {
              "client_id": "707922007794-fncvtlriv5u526b9mmd916q6ou2skaab.apps.googleusercontent.com",
              "client_type": 3
            }
          ]
        }
      }
    }
  ],
  "configuration_version": "1"
}